1,angel@mail.com,"2022-09-15 09:40:23","2022-09-15 09:40:23","0000-00-00 00:00:00"
2,aflores@tresesenta.mx,"2022-09-15 13:02:28","2022-09-15 13:02:28","0000-00-00 00:00:00"
3,maryspicazo@outlook.com,"2022-09-16 21:31:43","2022-09-16 21:31:43","0000-00-00 00:00:00"
4,arturoleon1@hotmail.com,"2022-09-19 16:59:38","2022-09-19 16:59:38","0000-00-00 00:00:00"
5,hmendoza+free@tresesenta.mx,"2022-09-19 18:24:05","2022-09-19 18:24:05","0000-00-00 00:00:00"
6,daniela.boone80@gmail.com,"2022-10-17 15:02:09","2022-10-17 15:02:09","0000-00-00 00:00:00"
