<?xml version="1.0" standalone="no"?>
<!DOCTYPE svg PUBLIC "-//W3C//DTD SVG 20010904//EN"
 "http://www.w3.org/TR/2001/REC-SVG-20010904/DTD/svg10.dtd">
<svg version="1.0" xmlns="http://www.w3.org/2000/svg"
 width="512.000000pt" height="512.000000pt" viewBox="0 0 512.000000 512.000000"
 preserveAspectRatio="xMidYMid meet">
<metadata>
Created by potrace 1.16, written by Peter Selinger 2001-2019
</metadata>
<g transform="translate(0.000000,512.000000) scale(0.100000,-0.100000)"
fill="#000000" stroke="none">
<path d="M2486 5094 l-26 -27 0 -1163 0 -1164 -312 -509 c-172 -281 -315 -510
-318 -510 -3 0 -90 139 -195 310 -104 171 -201 320 -214 330 -33 27 -93 25
-125 -3 -14 -13 -312 -517 -661 -1121 -574 -992 -635 -1101 -635 -1141 0 -33
6 -49 26 -70 l27 -26 2507 0 2507 0 27 26 c20 21 26 37 26 70 0 40 -61 149
-635 1141 -349 604 -647 1108 -661 1121 -32 28 -92 30 -125 3 -13 -10 -109
-159 -214 -330 -104 -171 -192 -310 -195 -310 -3 0 -146 229 -317 510 l-313
509 0 590 0 590 769 0 769 0 31 26 c26 22 31 33 31 72 0 46 -5 53 -180 272
-99 124 -180 227 -180 230 0 3 81 106 180 230 175 219 180 226 180 272 0 39
-5 50 -31 72 l-31 26 -842 0 -843 0 -27 -26z m1447 -186 c-5 -7 -64 -80 -130
-163 -135 -170 -143 -182 -143 -225 0 -43 8 -55 143 -225 66 -82 125 -156 130
-162 8 -10 -120 -13 -632 -13 l-641 0 0 400 0 400 641 0 c512 0 640 -3 632
-12z m-665 -3561 l703 -1142 -706 -3 c-388 -1 -1022 -1 -1410 0 l-706 3 703
1142 c387 629 705 1143 708 1143 3 0 321 -514 708 -1143z m-1572 157 c-3 -8
-184 -305 -402 -659 l-397 -645 -308 0 -308 0 82 143 c46 78 289 498 541 934
l459 792 169 -275 c100 -162 167 -281 164 -290z m2504 -199 c239 -412 480
-830 536 -927 l103 -178 -308 0 -308 0 -398 648 c-220 356 -399 654 -399 664
-1 20 327 558 335 549 3 -3 201 -343 439 -756z"/>
<path d="M2486 1974 c-21 -21 -26 -36 -26 -74 0 -38 5 -53 26 -74 21 -21 36
-26 74 -26 38 0 53 5 74 26 21 21 26 36 26 74 0 38 -5 53 -26 74 -21 21 -36
26 -74 26 -38 0 -53 -5 -74 -26z"/>
<path d="M2715 1646 c-28 -28 -40 -66 -31 -99 8 -35 664 -1099 692 -1124 36
-33 106 -32 139 1 28 28 40 66 31 99 -8 35 -664 1099 -692 1125 -36 32 -106
31 -139 -2z"/>
</g>
</svg>
