<?xml version="1.0" standalone="no"?>
<!DOCTYPE svg PUBLIC "-//W3C//DTD SVG 20010904//EN"
 "http://www.w3.org/TR/2001/REC-SVG-20010904/DTD/svg10.dtd">
<svg version="1.0" xmlns="http://www.w3.org/2000/svg"
 width="512.000000pt" height="512.000000pt" viewBox="0 0 512.000000 512.000000"
 preserveAspectRatio="xMidYMid meet">
<metadata>
Created by potrace 1.16, written by Peter Selinger 2001-2019
</metadata>
<g transform="translate(0.000000,512.000000) scale(0.100000,-0.100000)"
fill="#000000" stroke="none">
<path d="M4582 4438 c-250 -250 -282 -287 -282 -328 0 -33 44 -70 82 -70 30 0
58 25 299 268 147 147 269 275 272 284 8 24 -11 76 -33 88 -10 6 -33 10 -51
10 -30 0 -59 -26 -287 -252z"/>
<path d="M3659 4527 c-122 -35 -204 -119 -238 -245 -10 -34 -26 -54 -88 -107
-206 -176 -514 -343 -798 -435 -311 -99 -611 -139 -1050 -140 -786 -1 -1246
-155 -1405 -470 -63 -125 -75 -187 -75 -395 0 -215 10 -267 72 -395 27 -57 56
-94 117 -155 93 -91 172 -141 299 -187 78 -27 93 -37 131 -82 184 -219 290
-548 321 -991 3 -49 11 -112 17 -140 26 -122 121 -246 229 -300 93 -48 138
-55 349 -55 175 0 200 3 240 21 55 25 105 71 133 124 31 57 30 173 0 231 -44
83 -139 144 -222 144 -58 0 -78 33 -86 141 -4 52 -13 143 -21 203 -17 135 -18
126 4 126 37 0 139 32 209 65 124 58 214 160 250 282 11 38 24 63 32 63 27 0
267 -51 353 -76 191 -53 390 -136 568 -236 186 -105 404 -271 416 -318 25
-103 65 -165 137 -213 69 -47 119 -60 208 -55 125 6 224 73 277 186 l27 57 0
1555 0 1555 -26 55 c-37 79 -81 125 -152 159 -74 36 -161 47 -228 28z m123
-157 c52 -15 94 -53 113 -103 14 -38 15 -189 13 -1553 l-3 -1510 -25 -37 c-74
-108 -233 -99 -289 16 l-21 43 0 1505 c0 1438 1 1506 19 1544 22 49 48 73 98
91 47 16 49 16 95 4z m-372 -1640 l0 -1290 -72 54 c-405 304 -927 483 -1515
521 l-102 7 -3 430 -3 430 -28 24 c-34 29 -66 31 -101 3 l-26 -20 0 -435 0
-434 -78 0 c-196 0 -529 31 -707 66 -266 53 -454 159 -542 306 -18 30 -42 92
-54 138 -19 72 -21 104 -17 234 6 171 25 243 93 342 141 204 498 311 1103 331
l202 6 0 -163 c0 -154 1 -165 22 -187 23 -24 66 -30 98 -13 31 16 40 67 40
221 l0 149 83 0 c109 0 312 24 472 56 380 76 767 244 1055 458 41 31 76 56 77
56 2 0 3 -581 3 -1290z m-2455 -834 c61 -8 159 -18 218 -22 125 -8 117 -1 161
-144 50 -164 94 -425 111 -655 8 -109 22 -156 57 -199 38 -46 90 -73 158 -82
74 -10 115 -46 115 -104 0 -35 -6 -47 -33 -71 l-32 -29 -175 0 c-150 0 -182 3
-228 20 -69 26 -126 75 -161 140 -25 45 -30 71 -42 203 -37 404 -105 668 -228
885 -34 60 -39 72 -33 72 1 0 52 -7 112 -14z m941 -49 c13 -13 -30 -101 -69
-144 -46 -50 -135 -97 -224 -117 l-61 -14 -23 92 c-12 50 -30 115 -40 145
l-19 54 215 -5 c118 -2 218 -7 221 -11z"/>
<path d="M4292 2787 c-32 -34 -30 -89 4 -116 26 -20 37 -21 399 -21 362 0 373
1 399 21 33 26 37 88 6 119 -19 19 -33 20 -403 20 l-384 0 -21 -23z"/>
<path d="M4363 1422 c-13 -2 -32 -15 -43 -29 -42 -54 -39 -58 248 -345 149
-150 278 -271 291 -275 31 -8 72 15 89 49 10 22 10 33 -2 60 -17 41 -501 524
-536 536 -14 4 -35 6 -47 4z"/>
</g>
</svg>
