<?xml version="1.0" encoding="utf-8"?>
<!-- Generator: Adobe Illustrator 21.0.0, SVG Export Plug-In . SVG Version: 6.00 Build 0)  -->
<svg version="1.1" id="Capa_1" xmlns="http://www.w3.org/2000/svg" xmlns:xlink="http://www.w3.org/1999/xlink" x="0px" y="0px"
	 viewBox="0 0 11 39" style="enable-background:new 0 0 11 39;" xml:space="preserve">
<style type="text/css">
	.st0{clip-path:url(#SVGID_2_);}
	.st1{fill:#FFFFFF;}
	.st2{fill:#003C71;fill-opacity:0.15;}
	.st3{fill:#003C71;fill-opacity:0.3;}
</style>
<g>
	<defs>
		<rect id="SVGID_1_" x="-385" y="-5565" width="1920" height="6070"/>
	</defs>
	<clipPath id="SVGID_2_">
		<use xlink:href="#SVGID_1_"  style="overflow:visible;"/>
	</clipPath>
	<g class="st0">
		<rect x="-385" y="-5565" class="st1" width="1920" height="6070"/>
		<path class="st2" d="M-14.7-234.8c0-14,0-21,2.3-26.5c3-7.4,8.9-13.2,16.2-16.2c5.5-2.3,12.5-2.3,26.5-2.3H1119
			c14,0,21,0,26.5,2.3c7.4,3,13.2,8.9,16.2,16.2c2.3,5.5,2.3,12.5,2.3,26.5V-6c0,14,0,21-2.3,26.5c-3,7.4-8.9,13.2-16.2,16.2
			c-5.5,2.3-12.5,2.3-26.5,2.3H-14.7V-234.8z"/>
		<path class="st3" d="M-42.7-251.6c0-14,0-21,2.3-26.5c3-7.4,8.9-13.2,16.2-16.2c5.5-2.3,12.5-2.3,26.5-2.3H1147
			c14,0,21,0,26.5,2.3c7.3,3,13.2,8.9,16.2,16.2c2.3,5.5,2.3,12.5,2.3,26.5v228.8c0,14,0,21-2.3,26.5c-3,7.4-8.9,13.2-16.2,16.2
			c-5.5,2.3-12.5,2.3-26.5,2.3H-42.7V-251.6z"/>
	</g>
</g>
</svg>
