<?xml version="1.0" encoding="utf-8"?>
<!-- Generator: Adobe Illustrator 21.0.0, SVG Export Plug-In . SVG Version: 6.00 Build 0)  -->
<svg version="1.1" id="Capa_1" xmlns="http://www.w3.org/2000/svg" xmlns:xlink="http://www.w3.org/1999/xlink" x="0px" y="0px"
	 viewBox="0 0 512 512" style="enable-background:new 0 0 512 512;" xml:space="preserve">
<style type="text/css">
	.st0{fill:#FFFFFF;}
</style>
<g transform="translate(0.000000,512.000000) scale(0.100000,-0.100000)">
	<path class="st0" d="M2486,5094l-26-27V3904V2740l-312-509c-172-281-315-510-318-510s-90,139-195,310c-104,171-201,320-214,330
		c-33,27-93,25-125-3c-14-13-312-517-661-1121C61,245,0,136,0,96c0-33,6-49,26-70L53,0h2507h2507l27,26c20,21,26,37,26,70
		c0,40-61,149-635,1141c-349,604-647,1108-661,1121c-32,28-92,30-125,3c-13-10-109-159-214-330c-104-171-192-310-195-310
		s-146,229-317,510l-313,509v590v590h769h769l31,26c26,22,31,33,31,72c0,46-5,53-180,272c-99,124-180,227-180,230s81,106,180,230
		c175,219,180,226,180,272c0,39-5,50-31,72l-31,26h-842h-843L2486,5094z M3933,4908c-5-7-64-80-130-163c-135-170-143-182-143-225
		s8-55,143-225c66-82,125-156,130-162c8-10-120-13-632-13h-641v400v400h641C3813,4920,3941,4917,3933,4908z M3268,1347l703-1142
		l-706-3c-388-1-1022-1-1410,0l-706,3l703,1142c387,629,705,1143,708,1143S2881,1976,3268,1347z M1696,1504c-3-8-184-305-402-659
		L897,200H589H281l82,143c46,78,289,498,541,934l459,792l169-275C1632,1632,1699,1513,1696,1504z M4200,1305
		c239-412,480-830,536-927l103-178h-308h-308l-398,648c-220,356-399,654-399,664c-1,20,327,558,335,549
		C3764,2058,3962,1718,4200,1305z"/>
	<path class="st0" d="M2486,1974c-21-21-26-36-26-74s5-53,26-74s36-26,74-26s53,5,74,26s26,36,26,74s-5,53-26,74s-36,26-74,26
		S2507,1995,2486,1974z"/>
	<path class="st0" d="M2715,1646c-28-28-40-66-31-99c8-35,664-1099,692-1124c36-33,106-32,139,1c28,28,40,66,31,99
		c-8,35-664,1099-692,1125C2818,1680,2748,1679,2715,1646z"/>
</g>
</svg>
