<?xml version="1.0" encoding="utf-8"?>
<!-- Generator: Adobe Illustrator 21.0.0, SVG Export Plug-In . SVG Version: 6.00 Build 0)  -->
<svg version="1.1" id="Capa_1" xmlns="http://www.w3.org/2000/svg" xmlns:xlink="http://www.w3.org/1999/xlink" x="0px" y="0px"
	 viewBox="0 0 24 24" style="enable-background:new 0 0 24 24;" xml:space="preserve">
<style type="text/css">
	.st0{fill:#FE5000;fill-opacity:0.1037;}
	.st1{fill:#FE5000;}
</style>
<path class="st0" d="M12,0.7c-6.2,0-11.2,5-11.2,11.2c0,6.2,5,11.2,11.2,11.2c6.2,0,11.2-5,11.2-11.2C23.2,5.7,18.2,0.7,12,0.7z"/>
<path class="st1" d="M18.5,8.3L12.1,17c-0.2,0.2-0.4,0.3-0.6,0.4c-0.3,0-0.5,0-0.7-0.2l-4.6-3.6c-0.4-0.3-0.5-0.9-0.1-1.3
	c0.3-0.4,0.9-0.5,1.3-0.1l3.8,3L17,7.2c0.2-0.3,0.5-0.4,0.9-0.4c0.3,0,0.6,0.3,0.8,0.6C18.7,7.7,18.7,8,18.5,8.3z"/>
</svg>
