<?xml version="1.0" encoding="UTF-8"?>
<svg xmlns="http://www.w3.org/2000/svg" xmlns:xlink="http://www.w3.org/1999/xlink" width="40px" height="40px" viewBox="0 0 40 40" version="1.1">
<g id="surface1">
<path style=" stroke:none;fill-rule:nonzero;fill:rgb(99.607843%,31.372549%,0%);fill-opacity:1;" d="M 20 0 C 31.046875 0 40 8.953125 40 20 C 40 31.046875 31.046875 40 20 40 C 8.953125 40 0 31.046875 0 20 C 0 8.953125 8.953125 0 20 0 Z M 20 0 "/>
<path style=" stroke:none;fill-rule:nonzero;fill:rgb(100%,100%,100%);fill-opacity:1;" d="M 25.414062 18.585938 L 21.121094 14.292969 L 19.707031 15.707031 L 23 19 L 13 19 L 13 21 L 23 21 L 19.707031 24.292969 L 21.121094 25.707031 L 25.414062 21.414062 C 25.789062 21.039062 26 20.53125 26 20 C 26 19.46875 25.789062 18.960938 25.414062 18.585938 Z M 25.414062 18.585938 "/>
</g>
</svg>
